…
We developed the function `accept_reject_sample()` for this purpose. The
function requires two datasets:

1.  a full list of potential sampling units with their populations such
    as the one below

``` r
village_list
#> # A tibble: 73 x 4
#>       id village        population cluster
#>    <dbl> <chr>               <dbl> <chr>  
#>  1     1 BODO FOUDA          1733. 1      
#>  2     2 BODO GOUALGA        1975. 3      
#>  3     3 BODO GUEFTAGUE      1889. 4      
#>  4     4 DJIMTILO             310. <NA>   
#>  5     5 BLOUMTAGUE           299. <NA>   
#>  6     6 NANAMI               433. 5      
#>  7     7 LAFIA 1              847. <NA>   
#>  8     8 LAFIA 2              211. <NA>   
#>  9     9 LAFIA CKRENACK       117. <NA>   
#> 10    10 MESSIO               916. 6      
#> # … with 63 more rows
```

2.  a survey dataset drawn via PPS from the full list of potential
    sampling units such as the one below

``` r
sample_data
#> # A tibble: 407 x 11
#>    surveydate   psu   sex birthdate    age weight height oedema  muac measure
#>    <date>     <int> <int> <date>     <int>  <dbl>  <dbl>  <int> <int> <chr>  
#>  1 2020-12-16    18     2 NA             6    6.9   65        0   144 l      
#>  2 2020-12-16    16     1 2020-05-22     6    7.8   65.6      0   140 l      
#>  3 2020-12-19    13     2 2020-05-26     6    5.2   62.6      0   131 l      
#>  4 2020-12-19     3     2 2020-06-19     6    7     69.1      0   133 l      
#>  5 2020-12-19    15     2 2020-06-13     6    5.4   62.4      0   127 l      
#>  6 2020-12-20    14     1 NA             6    7.1   66.3      0   152 l      
#>  7 2020-12-20     9     1 2020-05-23     6    7.1   65.5      0   123 l      
#>  8 2020-12-23    30     2 NA             6    8.5   63.2      0   168 l      
#>  9 2020-12-23    24     1 2020-06-04     6    8.5   68.6      0   161 l      
#> 10 2020-12-18     4     2 2020-05-03     7    7.5   68.2      0   148 l      
#> # … with 397 more rows, and 1 more variable: clothes <chr>
```
…
and returns a plot of the accepted and rejected samples against the
probability density of the populations, and the simulated unweighted
survey sample like below:

<img src="man/figures/README-unnamed-chunk-6-1.png" width="100%" />

    #> # A tibble: 391 x 11
    #>    surveydate   psu   sex birthdate    age weight height oedema  muac measure
    #>    <date>     <dbl> <int> <date>     <int>  <dbl>  <dbl>  <int> <int> <chr>  
    #>  1 2020-12-18     5     1 2019-12-08    12    8.8   74.4      0   147 l      
    #>  2 2020-12-18     5     1 2019-10-01    14    7.8   74.9      0   136 l      
    #>  3 2020-12-18     5     2 2019-06-18    18    8.9   78.2      0   133 l      
    #>  4 2020-12-18     5     2 2018-09-02    27    8.5   81.2      0   121 h      
    #>  5 2020-12-18     5     2 2018-03-12    33   12.2   86.5      0   159 l      
    #>  6 2020-12-18     5     1 2017-06-30    41   13.8   96.3      0   156 h      
    #>  7 2020-12-18     5     2 2017-06-12    42   13.9  103.       0   142 h      
    #>  8 2020-12-18     5     2 2017-02-11    46   16.2  102.       0   159 h      
    #>  9 2020-12-18     5     2 2016-10-10    50   13.4   99.1      0   146 h      
    #> 10 2020-12-18     5     2 2016-10-17    50   14.3  100.       0   159 h      
    #> # … with 381 more rows, and 1 more variable: clothes <chr>
…
``` r
create_sample_psm(
  x = village_list,
  svy = sample_data,
  psu = c("id", "psu"),
  match = "cluster", 
  pop = "population"
)
```

and returns a simulated unweighted survey sample like below:

    #> # A tibble: 334 x 11
    #>    surveydate   psu   sex birthdate    age weight height oedema  muac measure
    #>    <date>     <int> <int> <date>     <int>  <dbl>  <dbl>  <int> <int> <chr>  
    #>  1 2020-12-16    18     2 NA             6    6.9   65        0   144 l      
    #>  2 2020-12-16    16     1 2020-05-22     6    7.8   65.6      0   140 l      
    #>  3 2020-12-19    13     2 2020-05-26     6    5.2   62.6      0   131 l      
    #>  4 2020-12-19     3     2 2020-06-19     6    7     69.1      0   133 l      
    #>  5 2020-12-19    15     2 2020-06-13     6    5.4   62.4      0   127 l      
    #>  6 2020-12-20    14     1 NA             6    7.1   66.3      0   152 l      
    #>  7 2020-12-23    30     2 NA             6    8.5   63.2      0   168 l      
    #>  8 2020-12-23    24     1 2020-06-04     6    8.5   68.6      0   161 l      
    #>  9 2020-12-18    10     1 NA             7    6.9   69        0   119 l      
    #> 10 2020-12-22    29     2 2020-05-10     7    6.3   63.6      0   127 l      
    #> # … with 324 more rows, and 1 more variable: clothes <chr>
