Accept or reject sampling units against population density of potential sampling units — accept_reject_psu • surveysampler
…
    Mark Myatt and Ernest Guevarra

    Examples

accept_reject_psu(
  x = village_list,
  svy = sample_data,
  psu = c("id", "psu"),
  match = "cluster",
  pop = "population",
  verbose = FALSE,
  show_plot = FALSE
 )

#> # A tibble: 393 x 11
#>    surveydate   psu   sex birthdate    age weight height oedema  muac measure
#>    <date>     <dbl> <int> <date>     <int>  <dbl>  <dbl>  <int> <int> <chr>  
#>  1 2020-12-19     1     2 NA             8    8.8   66.1      0   163 l      
#>  2 2020-12-19     1     1 2020-03-20     9    8.6   72.4      0   149 l      
#>  3 2020-12-19     1     2 2019-04-16    20   10.1   79.6      0   142 l      
#>  4 2020-12-19     1     2 2018-12-05    24    9     79.2      0   136 h      
#>  5 2020-12-19     1     1 2018-11-12    25   13.3   86.8      0   157 h      
#>  6 2020-12-19     1     2 NA            28    9.2   85.9      0   118 h      
#>  7 2020-12-19     1     1 2018-01-16    35   15.1   95.6      0   147 h      
#>  8 2020-12-19     1     2 2017-12-02    36   12.6   94.5      0   148 h      
#>  9 2020-12-19     1     1 2017-08-17    40   13.2   86.1      0   166 h      
#> 10 2020-12-19     1     1 2017-02-09    46   13.9   91.3      0   170 h      
#> # … with 383 more rows, and 1 more variable: clothes <chr>
…
